{
  "fr": {
    "News": "Actualités",
    "Read more": "Lire la suite",
    "Free software to take back control of your forms": "Un logiciel libre pour reprendre le contrôle sur vos formulaires",
    "Site powered by": "Ce site carbure à",
    "Source of this website": "Sources du site",
    "Header picture": "Bannière",
    "Font": "Police",
    "Icons": "Icônes",
    "Legals": "Mentions légales"
  }
}
